%YAML 1.1
%TAG !u! tag:unity3d.com,2011:
--- !u!1045 &1
EditorBuildSettings:
  m_ObjectHideFlags: 0
  serializedVersion: 2
  m_Scenes:
  - enabled: 1
    path: Assets/_Game/_Scenes/Form_Loading.unity
    guid: 4b16c7024970e1a4b82dd950cffe1176
  - enabled: 1
    path: Assets/_Game/_Scenes/Form_Home.unity
    guid: 6e8e2c3b3e23a1a44a9e05a1fc9c3295
  - enabled: 1
    path: Assets/_Game/_Scenes/Form_GamePlay.unity
    guid: 7252d919670fdfc44a4737d139a00892
  m_configObjects: {}
